name1#1363775400000#1363777200000#username1#description2#location2#
name1#1363773600000#1363775400000#username1#description1#location1##name2
name2#1363773600000#1363777200000#username2#description3#location3##name3
Elisei#1363766429615#1363770029615#username2#Elisei#Acasa#
Elisei#1363813221128#1366405221128#username1#Elisei#EAcasa#
